project1_src/my_dump.vcd
$date
	Fri Dec 08 06:29:06 2017
$end
$version
	Icarus Verilog
$end
$timescale
	1s
$end
$scope module TestBench $end
$var reg 1 ! Clk $end
$var reg 1 " Reset $end
$var reg 1 # Start $end
$var integer 32 $ counter [31:0] $end
$var integer 32 % flush [31:0] $end
$var integer 32 & i [31:0] $end
$var integer 32 ' outfile [31:0] $end
$var integer 32 ( stall [31:0] $end
$scope module CPU $end
$var wire 1 ! clk_i $end
$var wire 1 " rst_i $end
$var wire 1 # start_i $end
$var wire 32 ) registerout2 [31:0] $end
$var wire 32 * registerout1 [31:0] $end
$var wire 32 + inst_addr [31:0] $end
$var wire 32 , inst [31:0] $end
$var wire 32 - SIGN_EXTEND_DATA_O [31:0] $end
$var wire 32 . SHIFT_LEFT_2_O [31:0] $end
$var wire 32 / SHIFT_LEFT_0_27__28_31_O [31:0] $end
$var wire 8 0 MUX8_MUX8_O [7:0] $end
$var wire 32 1 MUX7_DATA_O [31:0] $end
$var wire 32 2 MUX6_DATA_O [31:0] $end
$var wire 5 3 MUX3_DATA_O [4:0] $end
$var wire 32 4 MUX32_MUX5_O [31:0] $end
$var wire 32 5 MUX32_MUX4_O [31:0] $end
$var wire 32 6 MUX32_MUX2_O [31:0] $end
$var wire 32 7 MUX32_MUX1_O [31:0] $end
$var wire 2 8 MEMWB_WB_O [1:0] $end
$var wire 32 9 MEMWB_READ_DATA_O [31:0] $end
$var wire 5 : MEMWB_MUX3_O [4:0] $end
$var wire 32 ; MEMWB_ALU_O [31:0] $end
$var wire 32 < IF_ID_PC [31:0] $end
$var wire 32 = IF_ID_INST [31:0] $end
$var wire 2 > IDEX_WB_O [1:0] $end
$var wire 32 ? IDEX_SIGNEXTEND_O [31:0] $end
$var wire 5 @ IDEX_RT_O [4:0] $end
$var wire 5 A IDEX_RS_O [4:0] $end
$var wire 5 B IDEX_RD_O [4:0] $end
$var wire 2 C IDEX_M_O [1:0] $end
$var wire 4 D IDEX_EX_O [3:0] $end
$var wire 32 E IDEX_DATA2_O [31:0] $end
$var wire 32 F IDEX_DATA1_O [31:0] $end
$var wire 1 G HD_PC_O $end
$var wire 1 H HD_MUX8_O $end
$var wire 1 I HD_IFID_O $end
$var wire 2 J FORWARDUNIT_MUX7_O [1:0] $end
$var wire 2 K FORWARDUNIT_MUX6_O [1:0] $end
$var wire 2 L EXMEM_WB_O [1:0] $end
$var wire 2 M EXMEM_M_O [1:0] $end
$var wire 32 N EXMEM_MUX7_O [31:0] $end
$var wire 5 O EXMEM_MUX3_O [4:0] $end
$var wire 32 P EXMEM_ALU_O [31:0] $end
$var wire 1 Q EQ_DATA_O $end
$var wire 32 R DATAMEMORY_READ_DATA_O [31:0] $end
$var wire 8 S CONTROL_MUX8_O [7:0] $end
$var wire 1 T CONTROL_JUMP_O $end
$var wire 1 U CONTROL_BRANCH_O $end
$var wire 1 V ALU_ZERO_O $end
$var wire 32 W ALU_DATA_O [31:0] $end
$var wire 3 X ALU_CONTROL_ALUCTRL_O [2:0] $end
$var wire 32 Y ADD_PC_DATA_O [31:0] $end
$var wire 32 Z ADDER_ADD_O [31:0] $end
$scope module ADD $end
$var wire 32 [ data_o [31:0] $end
$var wire 32 \ data2_in [31:0] $end
$var wire 32 ] data1_in [31:0] $end
$upscope $end
$scope module ALU $end
$var wire 32 ^ data2_i [31:0] $end
$var wire 32 _ data1_i [31:0] $end
$var wire 3 ` ALUCtrl_i [2:0] $end
$var reg 1 V Zero_o $end
$var reg 32 a data_o [31:0] $end
$upscope $end
$scope module ALU_Control $end
$var wire 2 b ALUOp_i [1:0] $end
$var wire 6 c funct_i [5:0] $end
$var reg 3 d ALUCtrl_o [2:0] $end
$upscope $end
$scope module Add_PC $end
$var wire 32 e data2_in [31:0] $end
$var wire 32 f data_o [31:0] $end
$var wire 32 g data1_in [31:0] $end
$upscope $end
$scope module Control $end
$var wire 6 h Op_i [5:0] $end
$var wire 8 i mux8_o [7:0] $end
$var wire 1 T jump_o $end
$var wire 1 U branch_o $end
$var reg 10 j out [9:0] $end
$upscope $end
$scope module DATAMEMORY $end
$var wire 1 k exmem_m_MR_i $end
$var wire 1 l exmem_m_MW_i $end
$var wire 32 m read_data_o [31:0] $end
$var wire 32 n exmem_mux7_i [31:0] $end
$var wire 32 o exmem_alu_i [31:0] $end
$upscope $end
$scope module EQ $end
$var wire 32 p data2_i [31:0] $end
$var wire 32 q data1_i [31:0] $end
$var reg 1 Q data_o $end
$upscope $end
$scope module EXMEM $end
$var wire 32 r alu_i [31:0] $end
$var wire 1 ! clk_i $end
$var wire 2 s wb_i [1:0] $end
$var wire 32 t mux7_i [31:0] $end
$var wire 5 u mux3_i [4:0] $end
$var wire 2 v m_i [1:0] $end
$var reg 32 w alu_o [31:0] $end
$var reg 2 x m_o [1:0] $end
$var reg 5 y mux3_o [4:0] $end
$var reg 32 z mux7_o [31:0] $end
$var reg 2 { wb_o [1:0] $end
$upscope $end
$scope module FORWARDUNIT $end
$var wire 5 | exmem_mux3_i [4:0] $end
$var wire 1 } exmem_wb_i $end
$var wire 1 ~ memwb_wb_i $end
$var wire 5 !" memwb_mux3_i [4:0] $end
$var wire 5 "" idex_rt_i [4:0] $end
$var wire 5 #" idex_rs_i [4:0] $end
$var reg 2 $" to_mux6_o [1:0] $end
$var reg 2 %" to_mux7_o [1:0] $end
$upscope $end
$scope module HD $end
$var wire 1 &" idex_m_i $end
$var wire 1 I ifid_o $end
$var wire 1 H mux8_o $end
$var wire 1 G pc_o $end
$var wire 32 '" ifid_inst_i [31:0] $end
$var wire 5 (" idex_rt_i [4:0] $end
$var wire 1 )" RT $end
$var wire 1 *" RS $end
$var wire 1 +" HD $end
$upscope $end
$scope module IDEX $end
$var wire 1 ! clk_i $end
$var wire 4 ," ex_i [3:0] $end
$var wire 2 -" m_i [1:0] $end
$var wire 5 ." rd_i [4:0] $end
$var wire 5 /" rs_i [4:0] $end
$var wire 5 0" rt_i [4:0] $end
$var wire 2 1" wb_i [1:0] $end
$var wire 32 2" signextend_i [31:0] $end
$var wire 32 3" data2_i [31:0] $end
$var wire 32 4" data1_i [31:0] $end
$var wire 32 5" add_pc_i [31:0] $end
$var reg 32 6" data1_o [31:0] $end
$var reg 32 7" data2_o [31:0] $end
$var reg 4 8" ex_o [3:0] $end
$var reg 2 9" m_o [1:0] $end
$var reg 5 :" rd_o [4:0] $end
$var reg 5 ;" rs_o [4:0] $end
$var reg 5 <" rt_o [4:0] $end
$var reg 32 =" signextend_o [31:0] $end
$var reg 2 >" wb_o [1:0] $end
$upscope $end
$scope module IFID $end
$var wire 32 ?" add_pc_i [31:0] $end
$var wire 1 ! clk_i $end
$var wire 1 @" flush_i $end
$var wire 1 I hazard_i $end
$var wire 32 A" instruction_i [31:0] $end
$var reg 32 B" inst_o [31:0] $end
$var reg 32 C" pc_o [31:0] $end
$upscope $end
$scope module Instruction_Memory $end
$var wire 32 D" instr_o [31:0] $end
$var wire 32 E" addr_i [31:0] $end
$upscope $end
$scope module MEMWB $end
$var wire 1 ! clk_i $end
$var wire 32 F" data_memory_readdata_i [31:0] $end
$var wire 32 G" exmem_alu_i [31:0] $end
$var wire 5 H" exmem_mux3_i [4:0] $end
$var wire 2 I" exmem_wb_i [1:0] $end
$var reg 32 J" alu_o [31:0] $end
$var reg 5 K" mux3_o [4:0] $end
$var reg 32 L" read_data_o [31:0] $end
$var reg 2 M" wb_o [1:0] $end
$upscope $end
$scope module MUX1 $end
$var wire 32 N" data1_i [31:0] $end
$var wire 32 O" data2_i [31:0] $end
$var wire 1 P" select_i $end
$var wire 32 Q" data_o [31:0] $end
$upscope $end
$scope module MUX2 $end
$var wire 32 R" data1_i [31:0] $end
$var wire 32 S" data2_i [31:0] $end
$var wire 1 T select_i $end
$var wire 32 T" data_o [31:0] $end
$upscope $end
$scope module MUX3 $end
$var wire 5 U" data1_i [4:0] $end
$var wire 5 V" data2_i [4:0] $end
$var wire 1 W" select_i $end
$var wire 5 X" data_o [4:0] $end
$upscope $end
$scope module MUX4 $end
$var wire 32 Y" data2_i [31:0] $end
$var wire 1 Z" select_i $end
$var wire 32 [" data_o [31:0] $end
$var wire 32 \" data1_i [31:0] $end
$upscope $end
$scope module MUX5 $end
$var wire 32 ]" data1_i [31:0] $end
$var wire 32 ^" data2_i [31:0] $end
$var wire 1 _" select_i $end
$var wire 32 `" data_o [31:0] $end
$upscope $end
$scope module MUX6 $end
$var wire 32 a" data_i [31:0] $end
$var wire 32 b" data_o [31:0] $end
$var wire 32 c" exmem_i [31:0] $end
$var wire 32 d" memwb_i [31:0] $end
$var wire 2 e" select_i [1:0] $end
$var reg 32 f" out [31:0] $end
$upscope $end
$scope module MUX7 $end
$var wire 32 g" data_i [31:0] $end
$var wire 32 h" exmem_i [31:0] $end
$var wire 32 i" memwb_i [31:0] $end
$var wire 2 j" select_i [1:0] $end
$var wire 32 k" data_o [31:0] $end
$var reg 32 l" out [31:0] $end
$upscope $end
$scope module MUX8 $end
$var wire 8 m" data1_i [7:0] $end
$var wire 8 n" data2_i [7:0] $end
$var wire 1 H select_i $end
$var wire 8 o" data_o [7:0] $end
$var reg 8 p" out [7:0] $end
$upscope $end
$scope module PC $end
$var wire 1 ! clk_i $end
$var wire 1 G hazard_i $end
$var wire 32 q" pc_i [31:0] $end
$var wire 1 " rst_i $end
$var wire 1 # start_i $end
$var reg 32 r" pc_o [31:0] $end
$upscope $end
$scope module Registers $end
$var wire 5 s" RDaddr_i [4:0] $end
$var wire 32 t" RDdata_i [31:0] $end
$var wire 5 u" RSaddr_i [4:0] $end
$var wire 32 v" RSdata_o [31:0] $end
$var wire 5 w" RTaddr_i [4:0] $end
$var wire 32 x" RTdata_o [31:0] $end
$var wire 1 y" RegWrite_i $end
$var wire 1 ! clk_i $end
$upscope $end
$scope module Shift_left_0_27__28_31 $end
$var wire 26 z" data_i [25:0] $end
$var wire 28 {" data_o [27:0] $end
$upscope $end
$scope module Shift_left_2 $end
$var wire 32 |" data_o [31:0] $end
$var wire 32 }" data_i [31:0] $end
$upscope $end
$scope module Sign_Extend $end
$var wire 16 ~" data_i [15:0] $end
$var wire 32 !# data_o [31:0] $end
$upscope $end
$upscope $end
$upscope $end
$enddefinitions $end
#0
$dumpvars
bx !#
bx ~"
bx }"
bx |"
bx00 {"
bx z"
xy"
bx x"
bx w"
bx v"
bx u"
bx t"
bx s"
b0 r"
bx q"
bx p"
bx o"
b0 n"
bx m"
bx l"
bx k"
bx j"
bx i"
bx h"
bx g"
bx f"
bx e"
bx d"
bx c"
bx b"
bx a"
bx `"
x_"
bx ^"
bx ]"
bx \"
bx ["
xZ"
bx Y"
bx X"
xW"
bx V"
bx U"
bx T"
bx00 S"
bx R"
bx Q"
xP"
bx O"
b100 N"
bx M"
bx L"
bx K"
bx J"
bx I"
bx H"
bx G"
bx F"
b0 E"
b100000000001000000000000000000 D"
bx C"
bx B"
b100000000001000000000000000000 A"
x@"
b100 ?"
bx >"
bx ="
bx <"
bx ;"
bx :"
bx 9"
bx 8"
bx 7"
bx 6"
bx 5"
bx 4"
bx 3"
bx 2"
bx 1"
bx 0"
bx /"
bx ."
bx -"
bx ,"
x+"
x*"
x)"
bx ("
bx '"
x&"
bx %"
bx $"
bx #"
bx ""
bx !"
x~
x}
bx |
bx {
bx z
bx y
bx x
bx w
bx v
bx u
bx t
bx s
bx r
bx q
bx p
bx o
bx n
bx m
xl
xk
bx j
bx i
bx h
b0 g
b100 f
b100 e
bx d
bx c
bx b
bx a
bx `
bx _
bx ^
bx ]
bx \
bx [
bx Z
b100 Y
bx X
bx W
xV
xU
xT
bx S
bx R
xQ
bx P
bx O
bx N
bx M
bx L
bx K
bx J
xI
xH
xG
bx F
bx E
bx D
bx C
bx B
bx A
bx @
bx ?
bx >
bx =
bx <
bx ;
bx :
bx 9
bx 8
bx 7
bx 6
bx 5
bx 4
bx 3
bx 2
bx 1
bx 0
bzxxxxxxxxxxxxxxxxxxxxxxxxxx00 /
bx .
bx -
b100000000001000000000000000000 ,
b0 +
bx *
bx )
b0 (
b11 '
b100000 &
b0 %
b0 $
0#
0"
1!
$end
#5
b111 ,"
b0 -"
b10 1"
0@"
b10000111 0
b10000111 o"
b10000111 p"
0P"
b100 6
b100 T"
b100 q"
b100 7
b100 Q"
b100 R"
0T
0U
b10000111 S
b10000111 i
b10000111 m"
1Q
b0 S"
b0 Z
b0 [
b0 O"
b0 .
b0 ]
b0 |"
b10000111 j
b0 )
b0 p
b0 3"
b0 x"
b0 w"
b0 *
b0 q
b0 4"
b0 v"
b0 u"
bz0000000000000000000000000000 /
b0 {"
b0 z"
b0 -
b0 2"
b0 }"
b0 !#
b0 ~"
b0 h
b0 ."
b0 0"
b0 /"
b0 =
b0 '"
b0 B"
b0 <
b0 \
b0 5"
b0 C"
#10
1G
1H
1I
1)"
1*"
1V
b0 W
b0 a
b0 r
b10 X
b10 `
b10 d
1+"
b0 3
b0 u
b0 X"
b0 J
b0 %"
b0 j"
b0 K
b0 $"
b0 e"
b0 5
b0 ^
b0 ["
b0 c
b0 1
b0 t
b0 \"
b0 k"
b0 l"
b0 2
b0 _
b0 b"
b0 f"
b0 b
0Z"
0W"
0&"
b0 B
b0 :"
b0 V"
b0 @
b0 ""
b0 ("
b0 <"
b0 U"
b0 A
b0 #"
b0 ;"
b0 ?
b0 ="
b0 Y"
b0 E
b0 7"
b0 g"
b0 F
b0 6"
b0 a"
b0 D
b0 8"
b0 C
b0 v
b0 9"
b0 >
b0 s
b0 >"
#12
1#
1"
#15
0k
0l
0}
b0 O
b0 y
b0 |
b0 H"
b0 N
b0 n
b0 z
b101 R
b101 m
b101 F"
b0 P
b0 o
b0 w
b0 G"
b0 c"
b0 h"
b0 M
b0 x
b0 L
b0 {
b0 I"
#20
b0 4
b0 `"
b0 d"
b0 i"
b0 t"
0y"
0_"
0~
b0 :
b0 !"
b0 K"
b0 s"
b0 9
b0 L"
b0 ^"
b0 ;
b0 J"
b0 ]"
b0 8
b0 M"
#25
0!
#50
b1000 ,"
b10001000 0
b10001000 o"
b10001000 p"
0)"
b10001000 S
b10001000 i
b10001000 m"
b100000000000000000000 S"
b10001000 j
b1000 6
b1000 T"
b1000 q"
b11 b
1W"
b100 w"
bz0000000100000000000000000000 /
b100000000000000000000 {"
b1000000000000000000 z"
b1000 h
b100 0"
b100000000010000000000000000000 ,
b100000000010000000000000000000 A"
b100000000010000000000000000000 D"
b1000 7
b1000 Q"
b1000 R"
b101 9
b101 L"
b101 ^"
b111 D
b111 8"
b10 >
b10 s
b10 >"
b100000000001000000000000000000 =
b100000000001000000000000000000 '"
b100000000001000000000000000000 B"
b100 Z
b100 [
b100 O"
b100 <
b100 \
b100 5"
b100 C"
b1000 Y
b1000 f
b1000 ?"
b1000 N"
b100 +
b100 g
b100 E"
b100 r"
b1 $
1!
#75
0!
#100
b1000000000000000000000 S"
0)"
0*"
b100 3
b100 u
b100 X"
b1100 6
b1100 T"
b1100 q"
b1000 w"
bz0000001000000000000000000000 /
b1000000000000000000000 {"
b10000000000000000000 z"
b1000 0"
b0 b
1Z"
0W"
1}
b100000000010010000000000000001 ,
b100000000010010000000000000001 A"
b100000000010010000000000000001 D"
b1100 7
b1100 Q"
b1100 R"
b100000000010000000000000000000 =
b100000000010000000000000000000 '"
b100000000010000000000000000000 B"
b1000 Z
b1000 [
b1000 O"
b1000 <
b1000 \
b1000 5"
b1000 C"
b100 @
b100 ""
b100 ("
b100 <"
b100 U"
b1000 D
b1000 8"
b10 L
b10 {
b10 I"
b1100 Y
b1100 f
b1100 ?"
b1100 N"
b1000 +
b1000 g
b1000 E"
b1000 r"
b10 $
1!
#125
0!
#150
b1001000000000000000100 S"
b10000 6
b10000 T"
b10000 q"
1y"
1~
b1000 3
b1000 u
b1000 X"
b1001 w"
bz0000001001000000000000000100 /
b1001000000000000000100 {"
b10010000000000000001 z"
b100 .
b100 ]
b100 |"
b1 -
b1 2"
b1 }"
b1 !#
b1 ~"
b1001 0"
b100000000100010000000000000000 ,
b100000000100010000000000000000 A"
b100000000100010000000000000000 D"
b10000 7
b10000 Q"
b10000 R"
b10 8
b10 M"
b100 O
b100 y
b100 |
b100 H"
b1000 @
b1000 ""
b1000 ("
b1000 <"
b1000 U"
b100000000010010000000000000001 =
b100000000010010000000000000001 '"
b100000000010010000000000000001 B"
b10000 Z
b10000 [
b10000 O"
b1100 <
b1100 \
b1100 5"
b1100 C"
b10000 Y
b10000 f
b10000 ?"
b10000 N"
b1100 +
b1100 g
b1100 E"
b1100 r"
b11 $
1!
#175
0!
#200
b10001000000000000000000 S"
0)"
0V
b1 W
b1 a
b1 r
b10100 6
b10100 T"
b10100 q"
b10001 w"
bz0000010001000000000000000000 /
b10001000000000000000000 {"
b100010000000000000000 z"
b0 .
b0 ]
b0 |"
b0 -
b0 2"
b0 }"
b0 !#
b0 ~"
b10001 0"
b1001 3
b1001 u
b1001 X"
b1 5
b1 ^
b1 ["
b1 c
b100000000100100000000000000001 ,
b100000000100100000000000000001 A"
b100000000100100000000000000001 D"
b10100 7
b10100 Q"
b10100 R"
b100000000100010000000000000000 =
b100000000100010000000000000000 '"
b100000000100010000000000000000 B"
b10000 Z
b10000 [
b10000 O"
b10000 <
b10000 \
b10000 5"
b10000 C"
b1001 @
b1001 ""
b1001 ("
b1001 <"
b1001 U"
b1 ?
b1 ="
b1 Y"
b1000 O
b1000 y
b1000 |
b1000 H"
b100 :
b100 !"
b100 K"
b100 s"
b10100 Y
b10100 f
b10100 ?"
b10100 N"
b10000 +
b10000 g
b10000 E"
b10000 r"
b100 $
1!
#225
0!
#250
1V
b0 W
b0 a
b0 r
b10010000000000000000100 S"
b11000 6
b11000 T"
b11000 q"
b10001 3
b10001 u
b10001 X"
b0 5
b0 ^
b0 ["
b0 c
b10010 w"
bz0000010010000000000000000100 /
b10010000000000000000100 {"
b100100000000000000001 z"
b100 .
b100 ]
b100 |"
b1 -
b1 2"
b1 }"
b1 !#
b1 ~"
b10010 0"
b10001100100100000000000000000000 ,
b10001100100100000000000000000000 A"
b10001100100100000000000000000000 D"
b11000 7
b11000 Q"
b11000 R"
b1000 :
b1000 !"
b1000 K"
b1000 s"
b1001 O
b1001 y
b1001 |
b1001 H"
b0 R
b0 m
b0 F"
b1 P
b1 o
b1 w
b1 G"
b1 c"
b1 h"
b10001 @
b10001 ""
b10001 ("
b10001 <"
b10001 U"
b0 ?
b0 ="
b0 Y"
b100000000100100000000000000001 =
b100000000100100000000000000001 '"
b100000000100100000000000000001 B"
b11000 Z
b11000 [
b11000 O"
b10100 <
b10100 \
b10100 5"
b10100 C"
b11000 Y
b11000 f
b11000 ?"
b11000 N"
b10100 +
b10100 g
b10100 E"
b10100 r"
b101 $
1!
#275
0!
#300
b10 -"
b11 1"
b11101000 0
b11101000 o"
b11101000 p"
b11101000 S
b11101000 i
b11101000 m"
b10010000000000000000000000 S"
b11101000 j
0)"
0V
b1 W
b1 a
b1 r
b11100 6
b11100 T"
b11100 q"
b10000 w"
b100 u"
bz0010010000000000000000000000 /
b10010000000000000000000000 {"
b100100000000000000000000 z"
b0 .
b0 ]
b0 |"
b0 -
b0 2"
b0 }"
b0 !#
b0 ~"
b100011 h
b10000 0"
b100 /"
b10010 3
b10010 u
b10010 X"
b1 5
b1 ^
b1 ["
b1 c
b1 4
b1 `"
b1 d"
b1 i"
b1 t"
b100010000101000000000000000000 ,
b100010000101000000000000000000 A"
b100010000101000000000000000000 D"
b11100 7
b11100 Q"
b11100 R"
b10001100100100000000000000000000 =
b10001100100100000000000000000000 '"
b10001100100100000000000000000000 B"
b11000 Z
b11000 [
b11000 O"
b11000 <
b11000 \
b11000 5"
b11000 C"
b10010 @
b10010 ""
b10010 ("
b10010 <"
b10010 U"
b1 ?
b1 ="
b1 Y"
b10001 O
b10001 y
b10001 |
b10001 H"
b101 R
b101 m
b101 F"
b0 P
b0 o
b0 w
b0 G"
b0 c"
b0 h"
b1001 :
b1001 !"
b1001 K"
b1001 s"
b1 ;
b1 J"
b1 ]"
b0 9
b0 L"
b0 ^"
b11100 Y
b11100 f
b11100 ?"
b11100 N"
b11000 +
b11000 g
b11000 E"
b11000 r"
b110 $
1!
#325
0!
#350
b0 ,"
0G
0H
0I
0+"
b0 -"
b0 1"
b0 0
b0 o"
b0 p"
1*"
b10001000 S
b10001000 i
b10001000 m"
1V
b0 W
b0 a
b0 r
b1000010100000000000000000000 S"
b10001000 j
b100000 6
b100000 T"
b100000 q"
b0 4
b0 `"
b0 d"
b0 i"
b0 t"
b10000 3
b10000 u
b10000 X"
b0 5
b0 ^
b0 ["
b0 c
1&"
b10100 w"
b10000 u"
bz1000010100000000000000000000 /
b1000010100000000000000000000 {"
b10000101000000000000000000 z"
b1000 h
b10100 0"
b10000 /"
b10000010011000000000100010 ,
b10000010011000000000100010 A"
b10000010011000000000100010 D"
b100000 7
b100000 Q"
b100000 R"
b10001 :
b10001 !"
b10001 K"
b10001 s"
b0 ;
b0 J"
b0 ]"
b101 9
b101 L"
b101 ^"
b10010 O
b10010 y
b10010 |
b10010 H"
b0 R
b0 m
b0 F"
b1 P
b1 o
b1 w
b1 G"
b1 c"
b1 h"
b10000 @
b10000 ""
b10000 ("
b10000 <"
b10000 U"
b100 A
b100 #"
b100 ;"
b0 ?
b0 ="
b0 Y"
b10 C
b10 v
b10 9"
b11 >
b11 s
b11 >"
b100010000101000000000000000000 =
b100010000101000000000000000000 '"
b100010000101000000000000000000 B"
b11100 Z
b11100 [
b11100 O"
b11100 <
b11100 \
b11100 5"
b11100 C"
b100000 Y
b100000 f
b100000 ?"
b100000 N"
b11100 +
b11100 g
b11100 E"
b11100 r"
b111 $
1!
#375
0!
#400
b1000 ,"
b10 1"
b10001000 0
b10001000 o"
b10001000 p"
1G
1H
1I
1)"
0*"
1+"
b10100 3
b10100 u
b10100 X"
0Z"
0&"
1k
b10 K
b10 $"
b10 e"
b1 4
b1 `"
b1 d"
b1 i"
b1 t"
b100000 Z
b100000 [
b100000 O"
b100000 <
b100000 \
b100000 5"
b100000 C"
b10100 @
b10100 ""
b10100 ("
b10100 <"
b10100 U"
b10000 A
b10000 #"
b10000 ;"
b0 D
b0 8"
b0 C
b0 v
b0 9"
b0 >
b0 s
b0 >"
b10000 O
b10000 y
b10000 |
b10000 H"
b101 R
b101 m
b101 F"
b0 P
b0 o
b0 w
b0 G"
b0 c"
b0 h"
b10 M
b10 x
b11 L
b11 {
b11 I"
b10010 :
b10010 !"
b10010 K"
b10010 s"
b1 ;
b1 J"
b1 ]"
b0 9
b0 L"
b0 ^"
b1000 $
b1 (
1!
#425
0!
#450
b111 ,"
b10000111 0
b10000111 o"
b10000111 p"
0V
b101 W
b101 a
b101 r
0)"
b10000111 S
b10000111 i
b10000111 m"
b101 2
b101 _
b101 b"
b101 f"
0Q
b1000001001100000000010001000 S"
b10000111 j
b100100 6
b100100 T"
b100100 q"
b101 4
b101 `"
b101 d"
b101 i"
b101 t"
1_"
b1 K
b1 $"
b1 e"
0k
0}
1Z"
b1 )
b1 p
b1 3"
b1 x"
b1001 w"
bz1000001001100000000010001000 /
b1000001001100000000010001000 {"
b10000010011000000000100010 z"
b11111111111111100000000010101000 Z
b11111111111111100000000010101000 [
b11111111111111100000000010101000 O"
b11111111111111100000000010001000 .
b11111111111111100000000010001000 ]
b11111111111111100000000010001000 |"
b11111111111111111000000000100010 -
b11111111111111111000000000100010 2"
b11111111111111111000000000100010 }"
b11111111111111111000000000100010 !#
b1000000000100010 ~"
b0 h
b10000 ."
b1001 0"
b10001100101000100000100000 ,
b10001100101000100000100000 A"
b10001100101000100000100000 D"
b100100 7
b100100 Q"
b100100 R"
b10000 :
b10000 !"
b10000 K"
b10000 s"
b0 ;
b0 J"
b0 ]"
b101 9
b101 L"
b101 ^"
b11 8
b11 M"
b10100 O
b10100 y
b10100 |
b10100 H"
b0 M
b0 x
b0 L
b0 {
b0 I"
b1000 D
b1000 8"
b10 >
b10 s
b10 >"
b10000010011000000000100010 =
b10000010011000000000100010 '"
b10000010011000000000100010 B"
b100100 Y
b100100 f
b100100 ?"
b100100 N"
b100000 +
b100000 g
b100000 E"
b100000 r"
b1001 $
1!
#475
b101 *
b101 q
b101 4"
b101 v"
0!
#500
b1000110010100010000010000000 S"
0)"
b100 W
b100 a
b100 r
b110 X
b110 `
b110 d
b0 4
b0 `"
b0 d"
b0 i"
b0 t"
b101000 6
b101000 T"
b101000 q"
b10010 w"
b0 *
b0 q
b0 4"
b0 v"
b10001 u"
bz1000110010100010000010000000 /
b1000110010100010000010000000 {"
b10001100101000100000100000 z"
b11111111111111100010000010000000 .
b11111111111111100010000010000000 ]
b11111111111111100010000010000000 |"
b11111111111111111000100000100000 -
b11111111111111111000100000100000 2"
b11111111111111111000100000100000 }"
b11111111111111111000100000100000 !#
b1000100000100000 ~"
b10001 ."
b10010 0"
b10001 /"
b10000 3
b10000 u
b10000 X"
b1 5
b1 ^
b1 ["
b100010 c
b11 b
0Z"
1W"
b1 1
b1 t
b1 \"
b1 k"
b1 l"
1}
b0 K
b0 $"
b0 e"
0y"
0_"
0~
b100010010100110000000000000000 ,
b100010010100110000000000000000 A"
b100010010100110000000000000000 D"
b101000 7
b101000 Q"
b101000 R"
b10001100101000100000100000 =
b10001100101000100000100000 '"
b10001100101000100000100000 B"
b11111111111111100010000010100100 Z
b11111111111111100010000010100100 [
b11111111111111100010000010100100 O"
b100100 <
b100100 \
b100100 5"
b100100 C"
b10000 B
b10000 :"
b10000 V"
b1001 @
b1001 ""
b1001 ("
b1001 <"
b1001 U"
b11111111111111111000000000100010 ?
b11111111111111111000000000100010 ="
b11111111111111111000000000100010 Y"
b1 E
b1 7"
b1 g"
b101 F
b101 6"
b101 a"
b111 D
b111 8"
b0 R
b0 m
b0 F"
b101 P
b101 o
b101 w
b101 G"
b101 c"
b101 h"
b10 L
b10 {
b10 I"
b10100 :
b10100 !"
b10100 K"
b10100 s"
b0 8
b0 M"
b101000 Y
b101000 f
b101000 ?"
b101000 N"
b100100 +
b100100 g
b100100 E"
b100100 r"
b1010 $
1!
#525
0!
#550
b1000 ,"
b10001000 0
b10001000 o"
b10001000 p"
1*"
b10001000 S
b10001000 i
b10001000 m"
b10 X
b10 `
b10 d
b1 W
b1 a
b1 r
b1001010011000000000000000000 S"
b10001000 j
b101100 6
b101100 T"
b101100 q"
b101 4
b101 `"
b101 d"
b101 i"
b101 t"
1y"
1~
b10001 3
b10001 u
b10001 X"
b100000 c
b0 2
b0 _
b0 b"
b0 f"
b0 )
b0 p
b0 3"
b0 x"
b10011 w"
b1 *
b1 q
b1 4"
b1 v"
b10010 u"
bz1001010011000000000000000000 /
b1001010011000000000000000000 {"
b10010100110000000000000000 z"
b0 .
b0 ]
b0 |"
b0 -
b0 2"
b0 }"
b0 !#
b0 ~"
b1000 h
b0 ."
b10011 0"
b10010 /"
b100010001100100000000000000000 ,
b100010001100100000000000000000 A"
b100010001100100000000000000000 D"
b101100 7
b101100 Q"
b101100 R"
b101 ;
b101 J"
b101 ]"
b0 9
b0 L"
b0 ^"
b10 8
b10 M"
b10000 O
b10000 y
b10000 |
b10000 H"
b1 N
b1 n
b1 z
b100 P
b100 o
b100 w
b100 G"
b100 c"
b100 h"
b10001 B
b10001 :"
b10001 V"
b10010 @
b10010 ""
b10010 ("
b10010 <"
b10010 U"
b10001 A
b10001 #"
b10001 ;"
b11111111111111111000100000100000 ?
b11111111111111111000100000100000 ="
b11111111111111111000100000100000 Y"
b0 F
b0 6"
b0 a"
b100010010100110000000000000000 =
b100010010100110000000000000000 '"
b100010010100110000000000000000 B"
b101000 Z
b101000 [
b101000 O"
b101000 <
b101000 \
b101000 5"
b101000 C"
b101100 Y
b101100 f
b101100 ?"
b101100 N"
b101000 +
b101000 g
b101000 E"
b101000 r"
b1011 $
1!
#575
0!
#600
b1000110010000000000000000000 S"
0)"
0*"
b0 5
b0 ^
b0 ["
b110000 6
b110000 T"
b110000 q"
b1 )
b1 p
b1 3"
b1 x"
b10010 w"
b0 *
b0 q
b0 4"
b0 v"
b10001 u"
bz1000110010000000000000000000 /
b1000110010000000000000000000 {"
b10001100100000000000000000 z"
b10010 0"
b10001 /"
b10011 3
b10011 u
b10011 X"
b0 c
b0 b
1Z"
0W"
b1 2
b1 _
b1 b"
b1 f"
b0 1
b0 t
b0 \"
b0 k"
b0 l"
b100 4
b100 `"
b100 d"
b100 i"
b100 t"
b100010011100010000000000000000 ,
b100010011100010000000000000000 A"
b100010011100010000000000000000 D"
b110000 7
b110000 Q"
b110000 R"
b100010001100100000000000000000 =
b100010001100100000000000000000 '"
b100010001100100000000000000000 B"
b101100 Z
b101100 [
b101100 O"
b101100 <
b101100 \
b101100 5"
b101100 C"
b0 B
b0 :"
b0 V"
b10011 @
b10011 ""
b10011 ("
b10011 <"
b10011 U"
b10010 A
b10010 #"
b10010 ;"
b0 ?
b0 ="
b0 Y"
b0 E
b0 7"
b0 g"
b1 F
b1 6"
b1 a"
b1000 D
b1000 8"
b10001 O
b10001 y
b10001 |
b10001 H"
b1 P
b1 o
b1 w
b1 G"
b1 c"
b1 h"
b10000 :
b10000 !"
b10000 K"
b10000 s"
b100 ;
b100 J"
b100 ]"
b110000 Y
b110000 f
b110000 ?"
b110000 N"
b101100 +
b101100 g
b101100 E"
b101100 r"
b1100 $
1!
#625
0!
