project1_src/my_dump.vcd
$date
	Thu Dec  7 20:23:29 2017
$end
$version
	Icarus Verilog
$end
$timescale
	1s
$end
$scope module TestBench $end
$var reg 1 ! Clk $end
$var reg 1 " Reset $end
$var reg 1 # Start $end
$var integer 32 $ counter [31:0] $end
$var integer 32 % flush [31:0] $end
$var integer 32 & i [31:0] $end
$var integer 32 ' outfile [31:0] $end
$var integer 32 ( stall [31:0] $end
$scope module CPU $end
$var wire 32 ) ADDER_ADD_O [31:0] $end
$var wire 32 * ADD_PC_DATA_O [31:0] $end
$var wire 3 + ALU_CONTROL_ALUCTRL_O [2:0] $end
$var wire 32 , ALU_DATA_O [31:0] $end
$var wire 1 - ALU_ZERO_O $end
$var wire 1 . CONTROL_BRANCH_O $end
$var wire 1 / CONTROL_JUMP_O $end
$var wire 8 0 CONTROL_MUX8_O [7:0] $end
$var wire 32 1 DATAMEMORY_READ_DATA_O [31:0] $end
$var wire 1 2 EQ_DATA_O $end
$var wire 32 3 EXMEM_ALU_O [31:0] $end
$var wire 5 4 EXMEM_MUX3_O [4:0] $end
$var wire 32 5 EXMEM_MUX7_O [31:0] $end
$var wire 2 6 EXMEM_M_O [1:0] $end
$var wire 2 7 EXMEM_WB_O [1:0] $end
$var wire 2 8 FORWARDUNIT_MUX6_O [1:0] $end
$var wire 2 9 FORWARDUNIT_MUX7_O [1:0] $end
$var wire 1 : HD_IFID_O $end
$var wire 1 ; HD_MUX8_O $end
$var wire 1 < HD_PC_O $end
$var wire 32 = IDEX_DATA1_O [31:0] $end
$var wire 32 > IDEX_DATA2_O [31:0] $end
$var wire 4 ? IDEX_EX_O [3:0] $end
$var wire 2 @ IDEX_M_O [1:0] $end
$var wire 5 A IDEX_RD_O [4:0] $end
$var wire 5 B IDEX_RS_O [4:0] $end
$var wire 5 C IDEX_RT_O [4:0] $end
$var wire 32 D IDEX_SIGNEXTEND_O [31:0] $end
$var wire 2 E IDEX_WB_O [1:0] $end
$var wire 32 F IF_ID_INST [31:0] $end
$var wire 32 G IF_ID_PC [31:0] $end
$var wire 32 H MEMWB_ALU_O [31:0] $end
$var wire 5 I MEMWB_MUX3_O [4:0] $end
$var wire 32 J MEMWB_READ_DATA_O [31:0] $end
$var wire 2 K MEMWB_WB_O [1:0] $end
$var wire 5 L MEM_WB_RD [4:0] $end
$var wire 32 M MUX32_MUX1_O [31:0] $end
$var wire 32 N MUX32_MUX2_O [31:0] $end
$var wire 32 O MUX32_MUX4_O [31:0] $end
$var wire 32 P MUX32_MUX5_O [31:0] $end
$var wire 5 Q MUX3_DATA_O [4:0] $end
$var wire 32 R MUX6_DATA_O [31:0] $end
$var wire 32 S MUX7_DATA_O [31:0] $end
$var wire 8 T MUX8_MUX8_O [7:0] $end
$var wire 32 U SHIFT_LEFT_0_27__28_31_O [31:0] $end
$var wire 32 V SHIFT_LEFT_2_O [31:0] $end
$var wire 32 W SIGN_EXTEND_DATA_O [31:0] $end
$var wire 1 X clk_i $end
$var wire 32 Y inst [31:0] $end
$var wire 32 Z inst_addr [31:0] $end
$var wire 32 [ registerout1 [31:0] $end
$var wire 32 \ registerout2 [31:0] $end
$var wire 1 ] rst_i $end
$var wire 1 ^ start_i $end
$scope module IFID $end
$var wire 32 _ add_pc_i [31:0] $end
$var wire 1 X clk_i $end
$var wire 1 ` flush_i $end
$var wire 1 : hazard_i $end
$var wire 32 a instruction_i [31:0] $end
$var reg 32 b inst_o [31:0] $end
$var reg 32 c pc_o [31:0] $end
$upscope $end
$scope module IDEX $end
$var wire 32 d add_pc_i [31:0] $end
$var wire 1 X clk_i $end
$var wire 32 e data1_i [31:0] $end
$var wire 32 f data2_i [31:0] $end
$var wire 4 g ex_i [3:0] $end
$var wire 2 h m_i [1:0] $end
$var wire 5 i rd_i [4:0] $end
$var wire 5 j rs_i [4:0] $end
$var wire 5 k rt_i [4:0] $end
$var wire 32 l signextend_i [31:0] $end
$var wire 2 m wb_i [1:0] $end
$var reg 32 n data1_o [31:0] $end
$var reg 32 o data2_o [31:0] $end
$var reg 4 p ex_o [3:0] $end
$var reg 2 q m_o [1:0] $end
$var reg 5 r rd_o [4:0] $end
$var reg 5 s rs_o [4:0] $end
$var reg 5 t rt_o [4:0] $end
$var reg 32 u signextend_o [31:0] $end
$var reg 2 v wb_o [1:0] $end
$upscope $end
$scope module EXMEM $end
$var wire 32 w alu_i [31:0] $end
$var wire 1 X clk_i $end
$var wire 2 x m_i [1:0] $end
$var wire 5 y mux3_i [4:0] $end
$var wire 32 z mux7_i [31:0] $end
$var wire 2 { wb_i [1:0] $end
$var reg 32 | alu_o [31:0] $end
$var reg 2 } m_o [1:0] $end
$var reg 5 ~ mux3_o [4:0] $end
$var reg 32 !" mux7_o [31:0] $end
$var reg 2 "" wb_o [1:0] $end
$upscope $end
$scope module MEMWB $end
$var wire 1 X clk_i $end
$var wire 32 #" data_memory_readdata_i [31:0] $end
$var wire 32 $" exmem_alu_i [31:0] $end
$var wire 5 %" exmem_mux3_i [4:0] $end
$var wire 2 &" exmem_wb_i [1:0] $end
$var reg 32 '" alu_o [31:0] $end
$var reg 5 (" mux3_o [4:0] $end
$var reg 32 )" read_data_o [31:0] $end
$var reg 2 *" wb_o [1:0] $end
$upscope $end
$scope module DATAMEMORY $end
$var wire 32 +" exmem_alu_i [31:0] $end
$var wire 1 ," exmem_m_MR_i $end
$var wire 1 -" exmem_m_MW_i $end
$var wire 32 ." exmem_mux7_i [31:0] $end
$var wire 32 /" read_data_o [31:0] $end
$upscope $end
$scope module FORWARDUNIT $end
$var wire 5 0" exmem_mux3_i [4:0] $end
$var wire 1 1" exmem_wb_i $end
$var wire 5 2" idex_rs_i [4:0] $end
$var wire 5 3" idex_rt_i [4:0] $end
$var wire 5 4" memwb_mux3_i [4:0] $end
$var wire 1 5" memwb_wb_i $end
$var reg 2 6" to_mux6_o [1:0] $end
$var reg 2 7" to_mux7_o [1:0] $end
$upscope $end
$scope module HD $end
$var wire 1 8" HD $end
$var wire 1 9" RS $end
$var wire 1 :" RT $end
$var wire 1 ;" idex_m_i $end
$var wire 5 <" idex_rt_i [4:0] $end
$var wire 32 =" ifid_inst_i [31:0] $end
$var wire 1 : ifid_o $end
$var wire 1 ; mux8_o $end
$var wire 1 < pc_o $end
$upscope $end
$scope module Control $end
$var wire 6 >" Op_i [5:0] $end
$var wire 1 . branch_o $end
$var wire 1 / jump_o $end
$var wire 8 ?" mux8_o [7:0] $end
$var reg 10 @" out [9:0] $end
$upscope $end
$scope module Add_PC $end
$var wire 32 A" data1_in [31:0] $end
$var wire 32 B" data2_in [31:0] $end
$var wire 32 C" data_o [31:0] $end
$upscope $end
$scope module ADD $end
$var wire 32 D" data1_in [31:0] $end
$var wire 32 E" data2_in [31:0] $end
$var wire 32 F" data_o [31:0] $end
$upscope $end
$scope module MUX1 $end
$var wire 32 G" data1_i [31:0] $end
$var wire 32 H" data2_i [31:0] $end
$var wire 32 I" data_o [31:0] $end
$var wire 1 J" select_i $end
$upscope $end
$scope module MUX2 $end
$var wire 32 K" data1_i [31:0] $end
$var wire 32 L" data2_i [31:0] $end
$var wire 32 M" data_o [31:0] $end
$var wire 1 / select_i $end
$upscope $end
$scope module MUX3 $end
$var wire 5 N" data1_i [4:0] $end
$var wire 5 O" data2_i [4:0] $end
$var wire 5 P" data_o [4:0] $end
$var wire 1 Q" select_i $end
$upscope $end
$scope module MUX4 $end
$var wire 32 R" data1_i [31:0] $end
$var wire 32 S" data2_i [31:0] $end
$var wire 32 T" data_o [31:0] $end
$var wire 1 U" select_i $end
$upscope $end
$scope module MUX5 $end
$var wire 32 V" data1_i [31:0] $end
$var wire 32 W" data2_i [31:0] $end
$var wire 32 X" data_o [31:0] $end
$var wire 1 Y" select_i $end
$upscope $end
$scope module MUX6 $end
$var wire 32 Z" data_i [31:0] $end
$var wire 32 [" data_o [31:0] $end
$var wire 32 \" exmem_i [31:0] $end
$var wire 32 ]" memwb_i [31:0] $end
$var wire 2 ^" select_i [1:0] $end
$var reg 32 _" out [31:0] $end
$upscope $end
$scope module MUX7 $end
$var wire 32 `" data_i [31:0] $end
$var wire 32 a" data_o [31:0] $end
$var wire 32 b" exmem_i [31:0] $end
$var wire 32 c" memwb_i [31:0] $end
$var wire 2 d" select_i [1:0] $end
$var reg 32 e" out [31:0] $end
$upscope $end
$scope module MUX8 $end
$var wire 8 f" data1_i [7:0] $end
$var wire 8 g" data2_i [7:0] $end
$var wire 8 h" data_o [7:0] $end
$var wire 1 ; select_i $end
$var reg 8 i" out [7:0] $end
$upscope $end
$scope module EQ $end
$var wire 32 j" data1_i [31:0] $end
$var wire 32 k" data2_i [31:0] $end
$var reg 1 l" data_o $end
$upscope $end
$scope module Shift_left_2 $end
$var wire 32 m" data_i [31:0] $end
$var wire 32 n" data_o [31:0] $end
$upscope $end
$scope module Sign_Extend $end
$var wire 16 o" data_i [15:0] $end
$var wire 32 p" data_o [31:0] $end
$upscope $end
$scope module Shift_left_0_27__28_31 $end
$var wire 26 q" data_i [25:0] $end
$var wire 28 r" data_o [27:0] $end
$upscope $end
$scope module PC $end
$var wire 1 X clk_i $end
$var wire 1 < hazard_i $end
$var wire 32 s" pc_i [31:0] $end
$var wire 1 ] rst_i $end
$var wire 1 ^ start_i $end
$var reg 32 t" pc_o [31:0] $end
$upscope $end
$scope module Instruction_Memory $end
$var wire 32 u" addr_i [31:0] $end
$var wire 32 v" instr_o [31:0] $end
$upscope $end
$scope module Registers $end
$var wire 5 w" RDaddr_i [4:0] $end
$var wire 32 x" RDdata_i [31:0] $end
$var wire 5 y" RSaddr_i [4:0] $end
$var wire 32 z" RSdata_o [31:0] $end
$var wire 5 {" RTaddr_i [4:0] $end
$var wire 32 |" RTdata_o [31:0] $end
$var wire 1 }" RegWrite_i $end
$var wire 1 X clk_i $end
$upscope $end
$scope module ALU $end
$var wire 3 ~" ALUCtrl_i [2:0] $end
$var wire 32 !# data1_i [31:0] $end
$var wire 32 "# data2_i [31:0] $end
$var reg 1 ## Zero_o $end
$var reg 32 $# data_o [31:0] $end
$upscope $end
$scope module ALU_Control $end
$var wire 2 %# ALUOp_i [1:0] $end
$var wire 6 &# funct_i [5:0] $end
$var reg 3 '# ALUCtrl_o [2:0] $end
$upscope $end
$upscope $end
$upscope $end
$enddefinitions $end
#0
$dumpvars
b10 '#
bx &#
bx %#
bx $#
0##
bx "#
bx !#
b10 ~"
x}"
bx |"
bx {"
bx z"
bx y"
bx x"
bz w"
b100000000100000 v"
b0 u"
b0 t"
b0xxxxxxxxxxxxxxxxxxxxxxxxxx00 s"
bx00 r"
bx q"
bx p"
bx o"
bx n"
bx m"
0l"
bx k"
bx j"
b0 i"
b0 h"
b0 g"
b0 f"
bx e"
b0 d"
bx c"
bx b"
bx a"
bx `"
bx _"
b0 ^"
bx ]"
bx \"
bx ["
bx Z"
xY"
bx X"
bx W"
bx V"
xU"
bx T"
bx S"
bx R"
xQ"
bx P"
bx O"
bx N"
b0xxxxxxxxxxxxxxxxxxxxxxxxxx00 M"
b0xxxxxxxxxxxxxxxxxxxxxxxxxx00 L"
b100 K"
0J"
b100 I"
bx H"
b100 G"
bx F"
bx E"
bx D"
b100 C"
b100 B"
b0 A"
b1000000000 @"
b0 ?"
bx >"
bx ="
bx <"
x;"
x:"
x9"
x8"
b0 7"
bx 6"
x5"
bx 4"
bx 3"
bx 2"
x1"
bx 0"
bx /"
bx ."
x-"
x,"
bx +"
bx *"
bx )"
bx ("
bx '"
bx &"
bx %"
bx $"
bx #"
bx ""
bx !"
bx ~
bx }
bx |
bx {
bx z
bx y
bx x
bx w
bx v
bx u
bx t
bx s
bx r
bx q
bx p
bx o
bx n
b0 m
bx l
bx k
bx j
bx i
b0 h
b0 g
bx f
bx e
bx d
bx c
bx b
b100000000100000 a
1`
b100 _
0^
0]
bx \
bx [
b0 Z
b100000000100000 Y
1X
bx W
bx V
bzxxxxxxxxxxxxxxxxxxxxxxxxxx00 U
b0 T
bx S
bx R
bx Q
bx P
bx O
b0xxxxxxxxxxxxxxxxxxxxxxxxxx00 N
b100 M
bz L
bx K
bx J
bx I
bx H
bx G
bx F
bx E
bx D
bx C
bx B
bx A
bx @
bx ?
bx >
bx =
x<
x;
x:
b0 9
bx 8
bx 7
bx 6
bx 5
bx 4
bx 3
02
bx 1
b0 0
1/
0.
0-
bx ,
b10 +
b100 *
bx )
b0 (
b11 '
b100000 &
b0 %
b0 $
0#
0"
1!
$end
#5
b111 g
b10 m
0`
b10000111 i"
b10000111 T
b10000111 h"
b100 N
b100 M"
b100 s"
0/
b10000111 0
b10000111 ?"
b10000111 f"
1l"
12
b0 L"
b0 )
b0 F"
b0 H"
b0 V
b0 D"
b0 n"
b10000111 @"
b0 {"
b0 \
b0 f
b0 k"
b0 |"
b0 y"
b0 [
b0 e
b0 j"
b0 z"
bz0000000000000000000000000000 U
b0 r"
b0 q"
b0 o"
b0 W
b0 l
b0 m"
b0 p"
b0 >"
b0 i
b0 k
b0 j
b0 b
b0 F
b0 ="
b0 c
b0 G
b0 d
b0 E"
#10
1<
1;
1:
1##
1-
b0 $#
b0 ,
b0 w
18"
19"
1:"
b0 Q
b0 y
b0 P"
b0 O
b0 T"
b0 "#
b0 &#
b0 e"
b0 S
b0 z
b0 R"
b0 a"
b0 _"
b0 R
b0 ["
b0 !#
b0 %#
0U"
0Q"
0;"
b0 r
b0 A
b0 O"
b0 t
b0 C
b0 3"
b0 <"
b0 N"
b0 s
b0 B
b0 2"
b0 u
b0 D
b0 S"
b0 o
b0 >
b0 `"
b0 n
b0 =
b0 Z"
b0 p
b0 ?
b0 q
b0 @
b0 x
b0 v
b0 E
b0 {
#12
1#
1^
1"
1]
#15
0,"
0-"
01"
b0 ~
b0 4
b0 %"
b0 0"
b0 !"
b0 5
b0 ."
b0 |
b101 1
b101 #"
b101 /"
b0 3
b0 $"
b0 +"
b0 \"
b0 b"
b0 }
b0 6
b0 ""
b0 7
b0 &"
#20
b0 P
b0 X"
b0 ]"
b0 c"
b0 x"
0}"
0Y"
05"
b0 ("
b0 I
b0 4"
b0 )"
b0 J
b0 V"
b0 '"
b0 H
b0 W"
b0 *"
b0 K
#25
0!
0X
#50
b10000000010000000 L"
b1000 N
b1000 M"
b1000 s"
b101 P
b101 X"
b101 ]"
b101 c"
b101 x"
b11 %#
1Q"
bz0000000000010000000010000000 U
b10000000010000000 r"
b100000000100000 q"
b100000000100000 o"
b10000000010000000 V
b10000000010000000 D"
b10000000010000000 n"
b100000000100000 W
b100000000100000 l
b100000000100000 m"
b100000000100000 p"
b1000 i
b100000000010010000000000001010 Y
b100000000010010000000000001010 a
b100000000010010000000000001010 v"
b1000 M
b1000 I"
b1000 K"
b101 )"
b101 J
b101 V"
b111 p
b111 ?
b10 v
b10 E
b10 {
b100000000100000 b
b100000000100000 F
b100000000100000 ="
b100 c
b10000000010000100 )
b10000000010000100 F"
b10000000010000100 H"
b100 G
b100 d
b100 E"
b100 t"
b1000 *
b1000 _
b1000 C"
b1000 G"
b100 Z
b100 A"
b100 u"
b1 $
1!
1X
#75
0!
0X
#100
b1000 g
b10001000 i"
b10001000 T
b10001000 h"
b10001000 0
b10001000 ?"
b10001000 f"
0:"
b1001000000000000101000 L"
b10001000 @"
b1100 N
b1100 M"
b1100 s"
b1001 {"
bz0000001001000000000000101000 U
b1001000000000000101000 r"
b10010000000000001010 q"
b1010 o"
b101000 V
b101000 D"
b101000 n"
b1010 W
b1010 l
b1010 m"
b1010 p"
b1000 >"
b0 i
b1001 k
b1000 Q
b1000 y
b1000 P"
b100000 &#
11"
b0 Y
b0 a
b0 v"
b1100 M
b1100 I"
b1100 K"
b100000000010010000000000001010 b
b100000000010010000000000001010 F
b100000000010010000000000001010 ="
b1000 c
b110000 )
b110000 F"
b110000 H"
b1000 G
b1000 d
b1000 E"
b1000 r
b1000 A
b1000 O"
b100000000100000 u
b100000000100000 D
b100000000100000 S"
b10 ""
b10 7
b10 &"
b1000 t"
b1100 *
b1100 _
b1100 C"
b1100 G"
b1000 Z
b1000 A"
b1000 u"
b10 $
1!
1X
#125
0!
0X
#150
b111 g
b10000111 i"
b10000111 T
b10000111 h"
0##
0-
b1010 $#
b1010 ,
b1010 w
b10000111 0
b10000111 ?"
b10000111 f"
b1010 O
b1010 T"
b1010 "#
b0 L"
b10000111 @"
b10000 N
b10000 M"
b10000 s"
1}"
15"
b1001 Q
b1001 y
b1001 P"
09"
b1010 &#
b0 %#
1U"
0Q"
b0 {"
bz0000000000000000000000000000 U
b0 r"
b0 q"
b0 o"
b0 V
b0 D"
b0 n"
b0 W
b0 l
b0 m"
b0 p"
b0 >"
b0 k
b10000 M
b10000 I"
b10000 K"
b10 *"
b10 K
b0 r
b0 A
b0 O"
b1001 t
b1001 C
b1001 3"
b1001 <"
b1001 N"
b1010 u
b1010 D
b1010 S"
b1000 p
b1000 ?
b0 b
b0 F
b0 ="
b1100 c
b1100 )
b1100 F"
b1100 H"
b1100 G
b1100 d
b1100 E"
b1100 t"
b10000 *
b10000 _
b10000 C"
b10000 G"
b1100 Z
b1100 A"
b1100 u"
b11 $
1!
1X
#175
0!
0X
#200
1##
1-
b0 $#
b0 ,
b0 w
b10100 N
b10100 M"
b10100 s"
19"
1:"
b0 Q
b0 y
b0 P"
b0 O
b0 T"
b0 "#
b0 &#
b11 %#
0U"
1Q"
b10100 M
b10100 I"
b10100 K"
b10000 c
b10000 )
b10000 F"
b10000 H"
b10000 G
b10000 d
b10000 E"
b0 t
b0 C
b0 3"
b0 <"
b0 N"
b0 u
b0 D
b0 S"
b111 p
b111 ?
b1010 |
b0 1
b0 #"
b0 /"
b1010 3
b1010 $"
b1010 +"
b1010 \"
b1010 b"
b10000 t"
b10100 *
b10100 _
b10100 C"
b10100 G"
b10000 Z
b10000 A"
b10000 u"
b100 $
1!
1X
#225
0!
0X
#250
b11000 N
b11000 M"
b11000 s"
b0 P
b0 X"
b0 ]"
b0 c"
b0 x"
b11000 M
b11000 I"
b11000 K"
b1010 '"
b1010 H
b1010 W"
b0 )"
b0 J
b0 V"
b0 |
b101 1
b101 #"
b101 /"
b0 3
b0 $"
b0 +"
b0 \"
b0 b"
b10100 c
b10100 )
b10100 F"
b10100 H"
b10100 G
b10100 d
b10100 E"
b10100 t"
b11000 *
b11000 _
b11000 C"
b11000 G"
b10100 Z
b10100 A"
b10100 u"
b101 $
1!
1X
#275
0!
0X
#300
b11100 N
b11100 M"
b11100 s"
b101 P
b101 X"
b101 ]"
b101 c"
b101 x"
b11100 M
b11100 I"
b11100 K"
b11000 c
b11000 )
b11000 F"
b11000 H"
b11000 G
b11000 d
b11000 E"
b0 '"
b0 H
b0 W"
b101 )"
b101 J
b101 V"
b11000 t"
b11100 *
b11100 _
b11100 C"
b11100 G"
b11000 Z
b11000 A"
b11000 u"
b110 $
1!
1X
#325
0!
0X
#350
b100000 N
b100000 M"
b100000 s"
b100000 M
b100000 I"
b100000 K"
b11100 c
b11100 )
b11100 F"
b11100 H"
b11100 G
b11100 d
b11100 E"
b11100 t"
b100000 *
b100000 _
b100000 C"
b100000 G"
b11100 Z
b11100 A"
b11100 u"
b111 $
1!
1X
#375
0!
0X
#400
b100100 N
b100100 M"
b100100 s"
b100100 M
b100100 I"
b100100 K"
b100000 c
b100000 )
b100000 F"
b100000 H"
b100000 G
b100000 d
b100000 E"
b100000 t"
b100100 *
b100100 _
b100100 C"
b100100 G"
b100000 Z
b100000 A"
b100000 u"
b1000 $
1!
1X
#425
0!
0X
#450
b101000 N
b101000 M"
b101000 s"
b101000 M
b101000 I"
b101000 K"
b100100 c
b100100 )
b100100 F"
b100100 H"
b100100 G
b100100 d
b100100 E"
b100100 t"
b101000 *
b101000 _
b101000 C"
b101000 G"
b100100 Z
b100100 A"
b100100 u"
b1001 $
1!
1X
#475
0!
0X
#500
b101100 N
b101100 M"
b101100 s"
b101100 M
b101100 I"
b101100 K"
b101000 c
b101000 )
b101000 F"
b101000 H"
b101000 G
b101000 d
b101000 E"
b101000 t"
b101100 *
b101100 _
b101100 C"
b101100 G"
b101000 Z
b101000 A"
b101000 u"
b1010 $
1!
1X
#525
0!
0X
#550
b110000 N
b110000 M"
b110000 s"
b110000 M
b110000 I"
b110000 K"
b101100 c
b101100 )
b101100 F"
b101100 H"
b101100 G
b101100 d
b101100 E"
b101100 t"
b110000 *
b110000 _
b110000 C"
b110000 G"
b101100 Z
b101100 A"
b101100 u"
b1011 $
1!
1X
#575
0!
0X
#600
b110100 N
b110100 M"
b110100 s"
b110100 M
b110100 I"
b110100 K"
b110000 c
b110000 )
b110000 F"
b110000 H"
b110000 G
b110000 d
b110000 E"
b110000 t"
b110100 *
b110100 _
b110100 C"
b110100 G"
b110000 Z
b110000 A"
b110000 u"
b1100 $
1!
1X
